FB.login(function(){}, {scope: 'publish_actions'});
	https://developers.facebook.com/docs/javascript/examples#graphapi

User
	https://developers.facebook.com/docs/graph-api/reference/user

FB.api()	
	https://developers.facebook.com/docs/javascript/reference/FB.api/

Puedes buscar en varios objetos públicos de la gráfica social con el extremo /search
	https://developers.facebook.com/docs/graph-api/using-graph-api

Explorador de la API Graph


Publishing
	https://developers.facebook.com/docs/graph-api/reference/v2.9/object/comments/

Example: Publish a status message to the current user's feed:
	https://developers.facebook.com/docs/javascript/reference/FB.api

	1341110822644831_1350893874999859

	1341110822644831_1350926664996580

	                        118523572045181_118525645378307


	http://www.facebook.com/1341110822644831_1350893874999859

	 http://facebook.com/118523572045181_118525645378307


	 1371100446312535_1371100449645868

	 https://www.facebook.com/manuelantonio.hernandezdiaz/posts/1371100449645868?pnref=story


	 http://facebook.com/118523572045181/post/118525645378307/

	 118523572045181_118525645378307



	 104754443449824_104755563449712

	 https://www.facebook.com/104754443449824/posts/104755563449712


	 
	 https://developers.facebook.com/docs/pages/publishing




https://developers.facebook.com/docs/pages/publishing
https://developers.facebook.com/docs/javascript/reference/FB.api
https://stackoverflow.com/questions/2845178/triggering-a-javascript-click-event-at-specific-coordinates	 



https://www.facebook.com/1054433081353762_1054496711347399

https://www.facebook.com/1054513184679085_1054433081353762


https://www.facebook.com/1054816534648750_1054433081353762

https://www.facebook.com/pg/Perro-1054433081353762/posts/?ref=page_internal


post_id
:
"1376801295742450"


1371100446312535_1377623028993610




https://www.facebook.com/1371100446312535/posts/1377772402312006


https://www.facebook.com/1371100446312535/posts/1378222442267002